Lab 1: Census Data Quality for Policy Decisions – Jenny Brar - CPLN 5920 Portfolio
…
# Write your get_acs() code here
WA_data <- get_acs(
  geography = "county",
  variables = c(
    tot_pop = "B01003_001", 
    med_hh_inc = "B19013_001"
  ), 
  year = 2022,
  survey = "acs5",
  state = "WA", 
  output = "wide"
)
 print(WA_data)

# A tibble: 39 × 6
   GEOID NAME                        tot_popE tot_popM med_hh_incE med_hh_incM
   <chr> <chr>                          <dbl>    <dbl>       <dbl>       <dbl>
 1 53001 Adams County, Washington       20557       NA       63105        3509
 2 53003 Asotin County, Washington      22370       NA       63724        6045
 3 53005 Benton County, Washington     207560       NA       83778        1849
 4 53007 Chelan County, Washington      79076       NA       71876        4147
 5 53009 Clallam County, Washington     77333       NA       66108        2368
 6 53011 Clark County, Washington      504091       NA       90115        1650
 7 53013 Columbia County, Washington     3980       NA       68825        4234
 8 53015 Cowlitz County, Washington    110621       NA       70912        2483
 9 53017 Douglas County, Washington     43189       NA       79422        2924
10 53019 Ferry County, Washington        7260       NA       50424        4642
# ℹ 29 more rows
…
